{
    "_cId": "3d730b2a95370c0430d5ef858f692725",
    "links": [
        {
            "href": "https://acds-validation-fix-mariadb.appianci.net/suite/rest/a/sites/latest/test01/pages/test01/interface",
            "rel": "update",
            "title": "Update"
        },
        {
            "href": "https://acds-validation-fix-mariadb.appianci.net/suite/rest/a/sites/latest/test01/pages/test01/interface",
            "rel": "self",
            "method": "POST"
        }
    ],
    "actions": [
        {
            "_cId": "8333cdbab40a98c14806ddac91e84583",
            "_actionName": "sail:record-action-trigger",
            "label": "updateRecordActionRefresh",
            "saveInto": [
                "<<jA0EAwMCGAF126Fmbs4B0n0BpnoPxusSoD9fy3OZkq38GLWJMAOEpduXzXnPjaFLxmcmGbZPSu7Z\r\n0G6hi4ARGClhjnEQLecSSghzgIyPa3uOT+z18UClWPkZE5uLrofheWkQYBatjnfsei3heyFL02l2\r\n6zIx5ADTPshMDrh31CnKbgOKJIaFeGQrHss95g==\r\n>>"
            ],
            "tooltip": "",
            "href": "",
            "#t": "DynamicLink"
        },
        {
            "_cId": "4713416ca9ec5e98a7be1d09b03bc84f",
            "_actionName": "sail:update-form-factor",
            "label": "updateFormFactor",
            "saveInto": [
                "<<jA0EAwMCGAF126Fmbs4B0oEBpnoPxusSoD9fy3OZkq38GLWJMAOEpduXpn7fjaJLwnfpLaeA6q5Z\r\nSQYZZ54z5KWkjsprc2ukhB+WAh6rEMZKWfQHGqFaNySDf7lS45qxFA7od4RMr/AUpmhF00cuPpnG\r\n39fAM3HUcwEdlGJ/0t/aRc4Mf7j/QZA5/H7qeze7sbU=\r\n>>"
            ],
            "tooltip": "",
            "href": "",
            "#t": "DynamicLink"
        },
        {
            "_cId": "44a7926bb6f6110edd4075eab3f01b36",
            "_actionName": "sail:toggle-sites-xray",
            "label": "toggleSitesXray",
            "saveInto": [
                "<<jA0EAwMCGAF126Fmbs4B0n0BpnoPxusSoD9fy3OZkq38GLWJMAOEpduXzXnPjaFLxmcmGbZPSu7Z\r\nymC+qQckEQxQXyNI+AGtahIsyaM6n4TPT+P9jPA/eLSsCRaGK/GZ7ClN7tUT6z5YF+r0vsolixkw\r\nGJl5NGLj1IDqeF9htuBkRUPnTPPeRmjF8aNE9w==\r\n>>"
            ],
            "tooltip": "",
            "href": "",
            "#t": "DynamicLink"
        },
        {
            "_cId": "d9d6f55c2aaabb5fd3a32c4e02258640",
            "_actionName": "sail:update-async-event-streams",
            "label": "",
            "saveInto": [
                "<<jA0EAwMCGAF126Fmbs4B0n0BpnoPxusSoD9fy3OZkq38GLWJMAOEpduXzXnPjaFLxmcmGbZPSu7Z\r\nymC+qQckEQxQXyNI+AGtahIsyaM6n4TPT+P9jPA/eLSsCRaGK/GZ7GVki4genajdT95GKLLulFCZ\r\nI87kaZd/hNBTqshHUzhNULPeIPfyUqiekUVdiQ==\r\n>>"
            ],
            "tooltip": "",
            "href": "",
            "#t": "DynamicLink"
        }
    ],
    "triggers": [],
    "ui": {
        "#t": "UiComponentsDelta",
        "modifiedComponents": [
            {
                "_cId": "e65e2b278e634d2d2aa340afb0da56e9",
                "testLabel": "cardChoiceField-Card Choices",
                "cards": [
                    {
                        "_cId": "1c2ac3baee33f4ae1244129c5248b2fe",
                        "contents": [
                            {
                                "_cId": "3d2e6d2cd895a9c6da8a5b9a356c891d",
                                "contents": [
                                    {
                                        "_cId": "abecbc683326a24834670e6176287413",
                                        "label": "",
                                        "labelPosition": "COLLAPSED",
                                        "instructions": "",
                                        "value": {
                                            "_cId": "d27d09aa808d01cd35fb5c96566b9a63",
                                            "values": [
                                                {
                                                    "_cId": "31073dad4ebd75b5c26195b9ef0dd3cc",
                                                    "testLabel": "cardTemplateIcon",
                                                    "icon": "smile-o",
                                                    "iconId": "",
                                                    "altText": "",
                                                    "caption": "",
                                                    "size": "",
                                                    "color": "ACCENT",
                                                    "customSize": 42,
                                                    "#t": "IconWidget"
                                                }
                                            ],
                                            "#t": "FormattedText"
                                        },
                                        "valueAlignment": "CENTER",
                                        "helpTooltip": "",
                                        "accessibilityText": "",
                                        "preventWrapping": false,
                                        "tooltip": "",
                                        "marginAbove": "NONE",
                                        "marginBelow": "",
                                        "removeBrowserTooltip": false,
                                        "#t": "RichTextDisplayField"
                                    },
                                    {
                                        "_cId": "51228656ab280d414299dba069a410fc",
                                        "label": "",
                                        "labelPosition": "COLLAPSED",
                                        "instructions": "",
                                        "value": {
                                            "_cId": "22fd30fff9f25a291343dd19ad35038e",
                                            "values": [
                                                {
                                                    "_cId": "892e5bf233df06e007339767335da764",
                                                    "testLabel": "cardTemplatePrimaryText",
                                                    "values": [
                                                        {
                                                            "_cId": "dedf44f539e8b7a3735249a10513ddf9",
                                                            "values": [
                                                                {
                                                                    "#v": "Good",
                                                                    "#t": "string"
                                                                }
                                                            ],
                                                            "#t": "StrongText"
                                                        }
                                                    ],
                                                    "size": "MEDIUM",
                                                    "#t": "SizedText"
                                                }
                                            ],
                                            "#t": "FormattedText"
                                        },
                                        "valueAlignment": "CENTER",
                                        "helpTooltip": "",
                                        "accessibilityText": "",
                                        "preventWrapping": true,
                                        "tooltip": "",
                                        "marginAbove": "",
                                        "marginBelow": "NONE",
                                        "numberOfLines": 2,
                                        "removeBrowserTooltip": false,
                                        "#t": "RichTextDisplayField"
                                    },
                                    {
                                        "_cId": "22b51670586b0f6711b17b16c8483ac6",
                                        "label": "",
                                        "labelPosition": "COLLAPSED",
                                        "instructions": "",
                                        "value": {
                                            "_cId": "671b09f640a97ee9882a1574134a3863",
                                            "values": [
                                                {
                                                    "_cId": "e10cd75f5eeba75b85db6817980b3c1c",
                                                    "testLabel": "cardTemplateSecondaryText",
                                                    "values": [
                                                        {
                                                            "#v": "I enjoyed my experience!",
                                                            "#t": "string"
                                                        }
                                                    ],
                                                    "#t": "SecondaryText"
                                                }
                                            ],
                                            "#t": "FormattedText"
                                        },
                                        "valueAlignment": "CENTER",
                                        "helpTooltip": "",
                                        "accessibilityText": "",
                                        "preventWrapping": true,
                                        "tooltip": "",
                                        "marginAbove": "",
                                        "marginBelow": "STANDARD",
                                        "numberOfLines": 2,
                                        "removeBrowserTooltip": false,
                                        "#t": "RichTextDisplayField"
                                    }
                                ],
                                "padding": "CARD_CHOICE_TEMPLATE_TILE",
                                "topLevelBackgroundColor": "",
                                "#t": "ContentLayout"
                            }
                        ],
                        "height": "",
                        "width": "NARROW_PLUS",
                        "style": "",
                        "showShadow": false,
                        "tooltip": "",
                        "marginBelow": "",
                        "accessibilityText": "",
                        "browserTooltip": "",
                        "disabled": false,
                        "shape": "",
                        "marginAbove": "",
                        "alignVertical": "TOP",
                        "decorativeBarPosition": "",
                        "decorativeBarColor": "",
                        "tooltipAlignment": ""
                    },
                    {
                        "_cId": "58fddee1da3ca377f3114de1f6a80157",
                        "contents": [
                            {
                                "_cId": "7e9dbf92cf866d4c29bb693abce4ebf6",
                                "contents": [
                                    {
                                        "_cId": "5fbdcbf1d9da403302a88cad3044a861",
                                        "label": "",
                                        "labelPosition": "COLLAPSED",
                                        "instructions": "",
                                        "value": {
                                            "_cId": "d6159da590bb9f7b12c62f670de3cba8",
                                            "values": [
                                                {
                                                    "_cId": "981318ab759588889c8c502aeab34e87",
                                                    "testLabel": "cardTemplateIcon",
                                                    "icon": "meh-o",
                                                    "iconId": "",
                                                    "altText": "",
                                                    "caption": "",
                                                    "size": "",
                                                    "color": "ACCENT",
                                                    "customSize": 42,
                                                    "#t": "IconWidget"
                                                }
                                            ],
                                            "#t": "FormattedText"
                                        },
                                        "valueAlignment": "CENTER",
                                        "helpTooltip": "",
                                        "accessibilityText": "",
                                        "preventWrapping": false,
                                        "tooltip": "",
                                        "marginAbove": "NONE",
                                        "marginBelow": "",
                                        "removeBrowserTooltip": false,
                                        "#t": "RichTextDisplayField"
                                    },
                                    {
                                        "_cId": "9fa0aa3649bb6d133c13acaa4a535bb6",
                                        "label": "",
                                        "labelPosition": "COLLAPSED",
                                        "instructions": "",
                                        "value": {
                                            "_cId": "32cd60c709db46ce6740ebf199545043",
                                            "values": [
                                                {
                                                    "_cId": "e6b7b5ecd924d7db2481a8c4ab7c7e9d",
                                                    "testLabel": "cardTemplatePrimaryText",
                                                    "values": [
                                                        {
                                                            "_cId": "3eac89219233e760492ebbf7f37fb9ef",
                                                            "values": [
                                                                {
                                                                    "#v": "Neutral",
                                                                    "#t": "string"
                                                                }
                                                            ],
                                                            "#t": "StrongText"
                                                        }
                                                    ],
                                                    "size": "MEDIUM",
                                                    "#t": "SizedText"
                                                }
                                            ],
                                            "#t": "FormattedText"
                                        },
                                        "valueAlignment": "CENTER",
                                        "helpTooltip": "",
                                        "accessibilityText": "",
                                        "preventWrapping": true,
                                        "tooltip": "",
                                        "marginAbove": "",
                                        "marginBelow": "NONE",
                                        "numberOfLines": 2,
                                        "removeBrowserTooltip": false,
                                        "#t": "RichTextDisplayField"
                                    },
                                    {
                                        "_cId": "19f7fa9f0944dff429a84bcf383cb412",
                                        "label": "",
                                        "labelPosition": "COLLAPSED",
                                        "instructions": "",
                                        "value": {
                                            "_cId": "1ca070761df4ea7282288f2c99636abb",
                                            "values": [
                                                {
                                                    "_cId": "76ce64bc3cb2f55ef4be83c6525c57bd",
                                                    "testLabel": "cardTemplateSecondaryText",
                                                    "values": [
                                                        {
                                                            "#v": "My experience was okay.",
                                                            "#t": "string"
                                                        }
                                                    ],
                                                    "#t": "SecondaryText"
                                                }
                                            ],
                                            "#t": "FormattedText"
                                        },
                                        "valueAlignment": "CENTER",
                                        "helpTooltip": "",
                                        "accessibilityText": "",
                                        "preventWrapping": true,
                                        "tooltip": "",
                                        "marginAbove": "",
                                        "marginBelow": "STANDARD",
                                        "numberOfLines": 2,
                                        "removeBrowserTooltip": false,
                                        "#t": "RichTextDisplayField"
                                    }
                                ],
                                "padding": "CARD_CHOICE_TEMPLATE_TILE",
                                "topLevelBackgroundColor": "",
                                "#t": "ContentLayout"
                            }
                        ],
                        "height": "",
                        "width": "NARROW_PLUS",
                        "style": "",
                        "showShadow": false,
                        "tooltip": "",
                        "marginBelow": "",
                        "accessibilityText": "",
                        "browserTooltip": "",
                        "disabled": false,
                        "shape": "",
                        "marginAbove": "",
                        "alignVertical": "TOP",
                        "decorativeBarPosition": "",
                        "decorativeBarColor": "",
                        "tooltipAlignment": ""
                    },
                    {
                        "_cId": "a2f01bbd306e111cb3b0daa23d5a6cfe",
                        "contents": [
                            {
                                "_cId": "5fa2131f56b517995fc7a8c09593a4f7",
                                "contents": [
                                    {
                                        "_cId": "8d12beb1f1d847bc25b79e6ed9393c84",
                                        "label": "",
                                        "labelPosition": "COLLAPSED",
                                        "instructions": "",
                                        "value": {
                                            "_cId": "bbd08199b85fa7fbaa27ac916d1ace6e",
                                            "values": [
                                                {
                                                    "_cId": "ed04c9a03b5f4a9f9fa302f17668a6a9",
                                                    "testLabel": "cardTemplateIcon",
                                                    "icon": "frown-o",
                                                    "iconId": "",
                                                    "altText": "",
                                                    "caption": "",
                                                    "size": "",
                                                    "color": "ACCENT",
                                                    "customSize": 42,
                                                    "#t": "IconWidget"
                                                }
                                            ],
                                            "#t": "FormattedText"
                                        },
                                        "valueAlignment": "CENTER",
                                        "helpTooltip": "",
                                        "accessibilityText": "",
                                        "preventWrapping": false,
                                        "tooltip": "",
                                        "marginAbove": "NONE",
                                        "marginBelow": "",
                                        "removeBrowserTooltip": false,
                                        "#t": "RichTextDisplayField"
                                    },
                                    {
                                        "_cId": "fd4c569b44f1791c0d2d1c56a90b328b",
                                        "label": "",
                                        "labelPosition": "COLLAPSED",
                                        "instructions": "",
                                        "value": {
                                            "_cId": "2967193fabacad0a21d2437c2a958fe5",
                                            "values": [
                                                {
                                                    "_cId": "14f19cb66eb1d953f22063b2589c7091",
                                                    "testLabel": "cardTemplatePrimaryText",
                                                    "values": [
                                                        {
                                                            "_cId": "18523f758aed7687e122e74fd4d028de",
                                                            "values": [
                                                                {
                                                                    "#v": "Bad",
                                                                    "#t": "string"
                                                                }
                                                            ],
                                                            "#t": "StrongText"
                                                        }
                                                    ],
                                                    "size": "MEDIUM",
                                                    "#t": "SizedText"
                                                }
                                            ],
                                            "#t": "FormattedText"
                                        },
                                        "valueAlignment": "CENTER",
                                        "helpTooltip": "",
                                        "accessibilityText": "",
                                        "preventWrapping": true,
                                        "tooltip": "",
                                        "marginAbove": "",
                                        "marginBelow": "NONE",
                                        "numberOfLines": 2,
                                        "removeBrowserTooltip": false,
                                        "#t": "RichTextDisplayField"
                                    },
                                    {
                                        "_cId": "4fa2f92186428ed1cad32ac3d70ccac0",
                                        "label": "",
                                        "labelPosition": "COLLAPSED",
                                        "instructions": "",
                                        "value": {
                                            "_cId": "fe98dd962ad90e088dc94133010e0ab8",
                                            "values": [
                                                {
                                                    "_cId": "90faea7cc26f063d5275ebfadcd2c6ab",
                                                    "testLabel": "cardTemplateSecondaryText",
                                                    "values": [
                                                        {
                                                            "#v": "Did not enjoy my experience.",
                                                            "#t": "string"
                                                        }
                                                    ],
                                                    "#t": "SecondaryText"
                                                }
                                            ],
                                            "#t": "FormattedText"
                                        },
                                        "valueAlignment": "CENTER",
                                        "helpTooltip": "",
                                        "accessibilityText": "",
                                        "preventWrapping": true,
                                        "tooltip": "",
                                        "marginAbove": "",
                                        "marginBelow": "STANDARD",
                                        "numberOfLines": 2,
                                        "removeBrowserTooltip": false,
                                        "#t": "RichTextDisplayField"
                                    }
                                ],
                                "padding": "CARD_CHOICE_TEMPLATE_TILE",
                                "topLevelBackgroundColor": "",
                                "#t": "ContentLayout"
                            }
                        ],
                        "height": "",
                        "width": "NARROW_PLUS",
                        "style": "",
                        "showShadow": false,
                        "tooltip": "",
                        "marginBelow": "",
                        "accessibilityText": "",
                        "browserTooltip": "",
                        "disabled": false,
                        "shape": "",
                        "marginAbove": "",
                        "alignVertical": "TOP",
                        "decorativeBarPosition": "",
                        "decorativeBarColor": "",
                        "tooltipAlignment": ""
                    }
                ],
                "height": "",
                "width": "NARROW_PLUS",
                "align": "",
                "cardShape": "",
                "maxSelections": 1,
                "identifiers": [
                    {
                        "#v": 1,
                        "#t": "int"
                    },
                    {
                        "#v": 2,
                        "#t": "int"
                    },
                    {
                        "#v": 3,
                        "#t": "int"
                    }
                ],
                "value": [
                    {
                        "#v": 2,
                        "#t": "int"
                    }
                ],
                "saveInto": [
                    "<<jA0EAwMCGAF126Fmbs4B0p0BpnoPxusSoD9fy3OZkq38GLWJMAOEpduVdIwOl0INEm/wj6OGTl0B\r\nFXzhYEYD8Y52S3dfh1ZMNHsBmzsmpq3eAy5YD2LXp/TnychUjRZhICK1nNDnzMSm84PACiJ+wk78\r\ng8nRvkU+30zZhplg5FUaoD6RmtyLA8cGYME5ypqmMrabGAfCLrRJsJV61SmT/D4rRytewPQigrlE\r\nydpS\r\n>>"
                ],
                "maxSelectionValidationMessage": "The number of selected options cannot be greater than 1",
                "#t": "CardGroup"
            }
        ]
    },
    "context": {
        "type": "stateful",
        "value": "jA0EAwMCGAF126Fmbs4B0r0B9Qf+N4OltIeMulbe3IGkVd2FyB/GrZ3sVkYmGHHiAL1wVfGixoxK\r\n01xlontpavwiyeMGuXdggl5sf2xtcvmr5megpG7MmVboWrHiveLji/0YFEtLo7KYnKcMi7nrATdF\r\npxniUFxp+pNym+h6FHa0j/4WSbj1QqRZpTQr0i5CUrqJoTKVMLrc3sqaifwHQiTfpovAJ7sz9yci\r\nTkgmWCjH9Y5crICv+XlCcp4zMtR1mx6vkn+S7+ODBS5mNb8=\r\n",
        "#t": "Map"
    },
    "uuid": "69d77b7d-8704-498d-9751-97f3cc7eed72",
    "i18nInfo": {
        "locale": "en-US",
        "timezoneId": "GMT",
        "calendarId": "gregorian",
        "decimalSeparator": ".",
        "groupingSeparator": ",",
        "isRtl": false,
        "isLtr": true
    },
    "timers": {
        "#t": "Dictionary"
    },
    "formFactors": [],
    "lastEvaluatedFormFactor": "TABLET_LANDSCAPE",
    "uiExpression": "",
    "asyncEventStreams": [],
    "#t": "UiConfig",
    "#s": {
        "#v": [
            {
                "id": 3070,
                "uuid": "{http://www.appian.com/ae/types/2009}UiComponentsDelta",
                "namespace": "http://www.appian.com/ae/types/2009",
                "localPart": "UiComponentsDelta",
                "description": "",
                "base": 95,
                "foundation": 95,
                "typeof": 3070,
                "list": 3071,
                "flags": 12,
                "instanceProperties": [
                    {
                        "name": "modifiedComponents",
                        "value": {
                            "#t": "Variant?list"
                        }
                    }
                ],
                "typeProperties": [
                    {
                        "name": "namespaces",
                        "value": {
                            "#v": [
                                "http://www.appian.com/ae/types/2009"
                            ],
                            "#t": "Text?list"
                        }
                    },
                    {
                        "name": "isNillable",
                        "value": {
                            "#v": [
                                false
                            ],
                            "#t": "Boolean?list"
                        }
                    }
                ],
                "listViewMapping": ""
            },
            {
                "id": 3071,
                "uuid": "{http://www.appian.com/ae/types/2009}UiComponentsDelta?list",
                "namespace": "http://www.appian.com/ae/types/2009",
                "localPart": "UiComponentsDelta?list",
                "description": "List of UiComponentsDelta",
                "base": 93,
                "foundation": 93,
                "typeof": 3070,
                "flags": 8,
                "instanceProperties": [],
                "typeProperties": [
                    {
                        "name": "autoGenerated",
                        "value": {
                            "#v": true,
                            "#t": "boolean"
                        }
                    }
                ],
                "listViewMapping": ""
            }
        ],
        "#t": "DataType?list"
    },
    "shortcuts": [],
    "#u": "<https://acds-validation-fix-mariadb.appianci.net/suite/rest/a/applications/latest/legacy/>; rel=\"x-sasa-app\"; dt=\"UiConfig\",<https://acds-validation-fix-mariadb.appianci.net/suite/components/ping.do>; rel=\"x-resume-session\"; dt=\"UiConfig\",<https://acds-validation-fix-mariadb.appianci.net/suite/rest/a/applications/latest/app{/appName}{/path*}{?params*}>; rel=\"x-sail-application\"; dt=\"UiConfig\",<https://acds-validation-fix-mariadb.appianci.net/suite/applications/img/{image}>; rel=\"x-web-design-app-object-img\"; dt=\"UiConfig\",<https://acds-validation-fix-mariadb.appianci.net/suite/rest/a/sites/latest/all>; rel=\"x-sites-all\"; dt=\"UiConfig\",<https://acds-validation-fix-mariadb.appianci.net/suite/sites{/urlStub}/tasks/task/{id}>; rel=\"x-site-task\"; dt=\"UiConfig\",<https://acds-validation-fix-mariadb.appianci.net/suite/rest/a/interfacedesigner/latest/evaluateComponentTemplateAndPreview{/templateId}>; rel=\"x-ifcdesigner-evaluatecomponenttemplateandpreview\"; dt=\"UiConfig\",<https://acds-validation-fix-mariadb.appianci.net/suite/sites{/urlStub}/page/{pageUrlStub}/task/{id}>; rel=\"x-site-task-page\"; dt=\"UiConfig\",<https://acds-validation-fix-mariadb.appianci.net/suite/rest/a/rpacomponent/latest/editor>; rel=\"x-rpa-expression-editor\"; dt=\"UiConfig\",<https://acds-validation-fix-mariadb.appianci.net/suite/rest/a/applications/latest/legacy/sites{/urlStub}/page{/pageUrlStub}/nav>; rel=\"x-site-page-navattributes\"; dt=\"UiConfig\",<https://acds-validation-fix-mariadb.appianci.net/suite/cors>; rel=\"x-cors\"; dt=\"UiConfig\",<https://acds-validation-fix-mariadb.appianci.net/suite/rest/a/interfacedesigner/latest/evaluateComponentTemplate{/templateId}>; rel=\"x-ifcdesigner-evaluatecomponenttemplate\"; dt=\"UiConfig\",<https://acds-validation-fix-mariadb.appianci.net/suite/rest/a/sites/latest/{siteUrlStub}/pages/{pageUrlStub}/report>; rel=\"x-sites-report\"; dt=\"UiConfig\",<https://acds-validation-fix-mariadb.appianci.net/suite/rest/a/applications/latest/legacy/sites{/urlStub}/nav>; rel=\"x-site-navattributes\"; dt=\"UiConfig\",<https://acds-validation-fix-mariadb.appianci.net/suite/sites>; rel=\"x-site-main\"; dt=\"UiConfig\",<https://acds-validation-fix-mariadb.appianci.net/suite/rest/a/task/latest/{taskId}/attributes>; rel=\"x-task-attributes\"; dt=\"UiConfig\",<https://acds-validation-fix-mariadb.appianci.net/suite/internal/webapi/releaselock/{objectUuid}/{uiSourceUuid}>; rel=\"x-data-release-object-lock\"; dt=\"UiConfig\""
}