{
    "feed": {
        "lang": "en_US",
        "id": "reports",
        "title": "Reports",
        "updated": "2019-09-13T11:44:05.656Z",
        "generator": {
            "version": "19.4.0.1",
            "uri": "https://an-appian-instance.host.net/suite/",
            "value": "Appian"
        },
        "icon": "https://an-appian-instance.host.net/suite/framework/img/favicon.ico",
        "logo": "https://an-appian-instance.host.net/suite/portal/img/skins/default/companylogo.png",
        "links": [
            {
                "href": "https://an-appian-instance.host.net/suite/",
                "rel": "related",
                "title": "Appian"
            },
            {
                "href": "https://an-appian-instance.host.net/suite/personalization/img/nophoto.jpg",
                "rel": "avatar",
                "title": "Avatar for test.user1",
                "extensions": [
                    {
                        "name": "x-single-density-image",
                        "attributes": {
                            "xmlns": "http://an-appian-instance.host.net/ae/types/2009"
                        },
                        "children": [
                            "https://an-appian-instance.host.net/suite/personalization/img/nophoto.jpg"
                        ]
                    }
                ]
            },
            {
                "href": "https://an-appian-instance.host.net/suite/rest/a/user/latest/test.user1/about",
                "rel": "x-me-about",
                "title": "User information for test.user1"
            },
            {
                "href": "https://an-appian-instance.host.net/suite/api/feed/tempo?uid=test.user1&t=e,b,x,f&m=menu-profile",
                "rel": "me",
                "title": "User profile for test.user1"
            },
            {
                "href": "https://an-appian-instance.host.net/suite/rest/a/record/latest/nYB0K7YxC0UQ2Fhx4p2O0Jk9DEN8HOypXWey_mmiNlfIEINLf6BtF1iSg93QdWqKRHpGwv0wgWxFkJ16KwXXUQpVJq69IFmyFwyuR4u48O4O2vj-oKzF74vp-xD-VSuoQP1gKcQCDHo3GExJ59FTyr6jyODRxhg/dashboards/summary",
                "rel": "x-user-record",
                "title": "User record for test.user1"
            },
            {
                "href": "https://an-appian-instance.host.net/suite/rest/a/content/latest/icB0K7YxC0UQ2Fhx4hlcQU9sbU1Cb4QQePIVoSRSl2llGpL_rOpmEk/o",
                "rel": "x-user-cover-photo"
            },
            {
                "href": "https://an-appian-instance.host.net/suite/api/feed/tempo?t=e,x,b&m=menu-news&st=o",
                "rel": "menu-news",
                "title": "News"
            },
            {
                "href": "https://an-appian-instance.host.net/suite/api/feed/tempo?m=menu-tasks&t=t&s=pt&defaultFacets=%5Bstatus-open%5D",
                "rel": "menu-tasks",
                "title": "Tasks",
                "extensions": [
                    {
                        "name": "thr:count",
                        "attributes": {
                            "xmlns:thr": "http://purl.org/syndication/thread/1.0"
                        },
                        "children": [
                            "0"
                        ]
                    }
                ]
            },
            {
                "href": "https://an-appian-instance.host.net/suite/api/feed/record",
                "rel": "menu-records",
                "title": "Records"
            },
            {
                "href": "https://an-appian-instance.host.net/suite/rest/a/uicontainer/latest/reports",
                "rel": "menu-reports",
                "title": "Reports"
            },
            {
                "href": "https://an-appian-instance.host.net/suite/api/feed/tempo?m=menu-actions",
                "rel": "menu-actions",
                "title": "Actions"
            },
            {
                "href": "https://an-appian-instance.host.net/suite/rest/a/uicontainer/latest/reports",
                "rel": "self",
                "title": "Reports"
            },
            {
                "href": "https://an-appian-instance.host.net/suite/",
                "rel": "selected-menu-item",
                "title": "menu-reports"
            },
            {
                "href": "https://an-appian-instance.host.net/suite/rest/a/uicontainer/latest/reports",
                "rel": "search",
                "title": "Search"
            },
            {
                "href": "https://an-appian-instance.host.net/suite/rest/a/uicontainer/latest/reports",
                "rel": "filter-all",
                "title": "All"
            }
        ],
        "entries": [
            {
                "id": "436",
                "title": "ASE",
                "content": "",
                "updated": "2019-09-13T11:44:01.384Z",
                "links": [
                    {
                        "href": "https://an-appian-instance.host.net/suite/tempo/img/report_generic.png",
                        "rel": "icon",
                        "title": "Icon"
                    },
                    {
                        "href": "https://an-appian-instance.host.net/suite/rest/a/uicontainer/latest/report/stub",
                        "rel": "edit",
                        "title": "       RTE Basic Test Report"
                    }
                ]
            },
            {
                "id": "191",
                "title": "! Blank Interface In A Report - Tempo Report",
                "content": "",
                "updated": "2019-09-13T11:43:39.479Z",
                "links": [
                    {
                        "href": "https://an-appian-instance.host.net/suite/tempo/img/report_generic.png",
                        "rel": "icon",
                        "title": "Icon"
                    },
                    {
                        "href": "https://an-appian-instance.host.net/suite/rest/a/uicontainer/latest/report/C_9fDw",
                        "rel": "edit",
                        "title": "! Blank Interface In A Report - Tempo Report"
                    }
                ]
            },
            {
                "id": "88",
                "title": "!!SAIL test charts",
                "content": "",
                "updated": "2019-09-13T11:43:28.629Z",
                "links": [
                    {
                        "href": "https://an-appian-instance.host.net/suite/tempo/img/report_generic.png",
                        "rel": "icon",
                        "title": "Icon"
                    },
                    {
                        "href": "https://an-appian-instance.host.net/suite/rest/a/uicontainer/latest/report/WB8DTw",
                        "rel": "edit",
                        "title": "!!SAIL test charts"
                    }
                ]
            },
            {
                "id": "92",
                "title": "!!SAIL test Dependent Fields",
                "content": "",
                "updated": "2019-09-13T11:43:28.864Z",
                "links": [
                    {
                        "href": "https://an-appian-instance.host.net/suite/tempo/img/report_generic.png",
                        "rel": "icon",
                        "title": "Icon"
                    },
                    {
                        "href": "https://an-appian-instance.host.net/suite/rest/a/uicontainer/latest/report/kgQVJA",
                        "rel": "edit",
                        "title": "!!SAIL test Dependent Fields"
                    }
                ]
            },
            {
                "id": "90",
                "title": "!!SAIL test dropdowns",
                "content": "",
                "updated": "2019-09-13T11:43:28.775Z",
                "links": [
                    {
                        "href": "https://an-appian-instance.host.net/suite/tempo/img/report_generic.png",
                        "rel": "icon",
                        "title": "Icon"
                    },
                    {
                        "href": "https://an-appian-instance.host.net/suite/rest/a/uicontainer/latest/report/6Bg25Q",
                        "rel": "edit",
                        "title": "!!SAIL test dropdowns"
                    }
                ]
            },
            {
                "id": "87",
                "title": "!!SAIL test editable grid",
                "content": "",
                "updated": "2019-09-13T11:43:28.574Z",
                "links": [
                    {
                        "href": "https://an-appian-instance.host.net/suite/tempo/img/report_generic.png",
                        "rel": "icon",
                        "title": "Icon"
                    },
                    {
                        "href": "https://an-appian-instance.host.net/suite/rest/a/uicontainer/latest/report/7Kd04A",
                        "rel": "edit",
                        "title": "!!SAIL test editable grid"
                    }
                ]
            },
            {
                "id": "89",
                "title": "!!SAIL test milestone report",
                "content": "",
                "updated": "2019-09-13T11:43:28.710Z",
                "links": [
                    {
                        "href": "https://an-appian-instance.host.net/suite/tempo/img/report_generic.png",
                        "rel": "icon",
                        "title": "Icon"
                    },
                    {
                        "href": "https://an-appian-instance.host.net/suite/rest/a/uicontainer/latest/report/3r7slA",
                        "rel": "edit",
                        "title": "!!SAIL test milestone report"
                    }
                ]
            },
            {
                "id": "86",
                "title": "!!SAIL test Paging Grid",
                "content": "",
                "updated": "2019-09-13T11:43:28.516Z",
                "links": [
                    {
                        "href": "https://an-appian-instance.host.net/suite/tempo/img/report_generic.png",
                        "rel": "icon",
                        "title": "Icon"
                    },
                    {
                        "href": "https://an-appian-instance.host.net/suite/rest/a/uicontainer/latest/report/8AQaAg",
                        "rel": "edit",
                        "title": "!!SAIL test Paging Grid"
                    }
                ]
            },
            {
                "id": "91",
                "title": "!!SAIL test tall image",
                "content": "report with a very tall image",
                "updated": "2019-09-13T11:43:28.828Z",
                "links": [
                    {
                        "href": "https://an-appian-instance.host.net/suite/tempo/img/report_generic.png",
                        "rel": "icon",
                        "title": "Icon"
                    },
                    {
                        "href": "https://an-appian-instance.host.net/suite/rest/a/uicontainer/latest/report/3H3P3g",
                        "rel": "edit",
                        "title": "!!SAIL test tall image"
                    }
                ]
            },
            {
                "id": "85",
                "title": "!!SAIL_image_test_report",
                "content": "",
                "updated": "2019-09-13T11:43:28.457Z",
                "links": [
                    {
                        "href": "https://an-appian-instance.host.net/suite/tempo/img/report_generic.png",
                        "rel": "icon",
                        "title": "Icon"
                    },
                    {
                        "href": "https://an-appian-instance.host.net/suite/rest/a/uicontainer/latest/report/YG7IWQ",
                        "rel": "edit",
                        "title": "!!SAIL_image_test_report"
                    }
                ]
            },
            {
                "id": "94",
                "title": "+ rich text acceptance",
                "content": "Displays variants of Rich Text Icon for verifying acceptance criteria.",
                "updated": "2019-09-13T11:43:28.947Z",
                "links": [
                    {
                        "href": "https://an-appian-instance.host.net/suite/tempo/img/report_generic.png",
                        "rel": "icon",
                        "title": "Icon"
                    },
                    {
                        "href": "https://an-appian-instance.host.net/suite/rest/a/uicontainer/latest/report/hVHiSg",
                        "rel": "edit",
                        "title": "+ rich text acceptance"
                    }
                ]
            },
            {
                "id": "93",
                "title": "+ rich text icon sample",
                "content": "",
                "updated": "2019-09-13T11:43:28.908Z",
                "links": [
                    {
                        "href": "https://an-appian-instance.host.net/suite/tempo/img/report_generic.png",
                        "rel": "icon",
                        "title": "Icon"
                    },
                    {
                        "href": "https://an-appian-instance.host.net/suite/rest/a/uicontainer/latest/report/ebAfiw",
                        "rel": "edit",
                        "title": "+ rich text icon sample"
                    }
                ]
            },
            {
                "id": "95",
                "title": "+ Video",
                "content": "",
                "updated": "2019-09-13T11:43:28.992Z",
                "links": [
                    {
                        "href": "https://an-appian-instance.host.net/suite/tempo/img/report_generic.png",
                        "rel": "icon",
                        "title": "Icon"
                    },
                    {
                        "href": "https://an-appian-instance.host.net/suite/rest/a/uicontainer/latest/report/dUgOOg",
                        "rel": "edit",
                        "title": "+ Video"
                    }
                ]
            },
            {
                "id": "187",
                "title": "Active Users",
                "content": "",
                "updated": "2019-09-13T11:43:38.684Z",
                "links": [
                    {
                        "href": "https://an-appian-instance.host.net/suite/tempo/img/report_generic.png",
                        "rel": "icon",
                        "title": "Icon"
                    },
                    {
                        "href": "https://an-appian-instance.host.net/suite/rest/a/uicontainer/latest/report/eWExoA",
                        "rel": "edit",
                        "title": "Active Users"
                    }
                ]
            },
            {
                "id": "77",
                "title": "ADS Entity Browser",
                "content": "",
                "updated": "2019-09-13T11:43:23.673Z",
                "links": [
                    {
                        "href": "https://an-appian-instance.host.net/suite/tempo/img/report_generic.png",
                        "rel": "icon",
                        "title": "Icon"
                    },
                    {
                        "href": "https://an-appian-instance.host.net/suite/rest/a/uicontainer/latest/report/cUxKBg",
                        "rel": "edit",
                        "title": "ADS Entity Browser"
                    }
                ]
            },
            {
                "id": "76",
                "title": "ADS Schema Browser",
                "content": "",
                "updated": "2019-09-13T11:43:23.630Z",
                "links": [
                    {
                        "href": "https://an-appian-instance.host.net/suite/tempo/img/report_generic.png",
                        "rel": "icon",
                        "title": "Icon"
                    },
                    {
                        "href": "https://an-appian-instance.host.net/suite/rest/a/uicontainer/latest/report/Z1N2jQ",
                        "rel": "edit",
                        "title": "ADS Schema Browser"
                    }
                ]
            },
            {
                "id": "448",
                "title": "App Designer Object Creators",
                "content": "",
                "updated": "2019-09-13T11:44:05.603Z",
                "links": [
                    {
                        "href": "https://an-appian-instance.host.net/suite/tempo/img/report_generic.png",
                        "rel": "icon",
                        "title": "Icon"
                    },
                    {
                        "href": "https://an-appian-instance.host.net/suite/rest/a/uicontainer/latest/report/4Vt02w",
                        "rel": "edit",
                        "title": "App Designer Object Creators"
                    }
                ]
            },
            {
                "id": "68",
                "title": "Appian Failed Tests Analytics",
                "content": "Shows number of failed tests in different Appian projects",
                "updated": "2019-09-13T11:43:21.274Z",
                "links": [
                    {
                        "href": "https://an-appian-instance.host.net/suite/tempo/img/report_generic.png",
                        "rel": "icon",
                        "title": "Icon"
                    },
                    {
                        "href": "https://an-appian-instance.host.net/suite/rest/a/uicontainer/latest/report/ZKPbgw",
                        "rel": "edit",
                        "title": "Appian Failed Tests Analytics"
                    }
                ]
            },
            {
                "id": "160",
                "title": "Appian Software and Documentation",
                "content": "Summary of release status and links to online documentation",
                "updated": "2019-09-13T11:43:36.591Z",
                "links": [
                    {
                        "href": "https://an-appian-instance.host.net/suite/tempo/img/report_generic.png",
                        "rel": "icon",
                        "title": "Icon"
                    },
                    {
                        "href": "https://an-appian-instance.host.net/suite/rest/a/uicontainer/latest/report/releases",
                        "rel": "edit",
                        "title": "Appian Software and Documentation"
                    }
                ]
            },
            {
                "id": "14",
                "title": "Bar Chart Tester",
                "content": "Report for testing Bar Chart Component",
                "updated": "2019-09-13T11:38:00.933Z",
                "links": [
                    {
                        "href": "https://an-appian-instance.host.net/suite/tempo/img/report_generic.png",
                        "rel": "icon",
                        "title": "Icon"
                    },
                    {
                        "href": "https://an-appian-instance.host.net/suite/rest/a/uicontainer/latest/report/Iz9R7w",
                        "rel": "edit",
                        "title": "Bar Chart Tester"
                    }
                ]
            },
            {
                "id": "36",
                "title": "Barcode Field Tester",
                "content": "Report for testing Barcode Field Component",
                "updated": "2019-09-13T11:38:08.080Z",
                "links": [
                    {
                        "href": "https://an-appian-instance.host.net/suite/tempo/img/report_generic.png",
                        "rel": "icon",
                        "title": "Icon"
                    },
                    {
                        "href": "https://an-appian-instance.host.net/suite/rest/a/uicontainer/latest/report/6o46-w",
                        "rel": "edit",
                        "title": "Barcode Field Tester"
                    }
                ]
            },
            {
                "id": "84",
                "title": "BarcodeTestReport",
                "content": "",
                "updated": "2019-09-13T11:43:27.875Z",
                "links": [
                    {
                        "href": "https://an-appian-instance.host.net/suite/tempo/img/report_generic.png",
                        "rel": "icon",
                        "title": "Icon"
                    },
                    {
                        "href": "https://an-appian-instance.host.net/suite/rest/a/uicontainer/latest/report/I9BVhQ",
                        "rel": "edit",
                        "title": "BarcodeTestReport"
                    }
                ]
            },
            {
                "id": "435",
                "title": "Batch Query Report",
                "content": "Report to expose batch query process analytics interface",
                "updated": "2019-09-13T11:44:01.181Z",
                "links": [
                    {
                        "href": "https://an-appian-instance.host.net/suite/tempo/img/report_generic.png",
                        "rel": "icon",
                        "title": "Icon"
                    },
                    {
                        "href": "https://an-appian-instance.host.net/suite/rest/a/uicontainer/latest/report/nXLBqg",
                        "rel": "edit",
                        "title": "Batch Query Report"
                    }
                ]
            },
            {
                "id": "43",
                "title": "Billboard 19r1 Tester",
                "content": "Report for testing Billboard Component 19r1",
                "updated": "2019-09-13T11:38:10.833Z",
                "links": [
                    {
                        "href": "https://an-appian-instance.host.net/suite/tempo/img/report_generic.png",
                        "rel": "icon",
                        "title": "Icon"
                    },
                    {
                        "href": "https://an-appian-instance.host.net/suite/rest/a/uicontainer/latest/report/ouhI8A",
                        "rel": "edit",
                        "title": "Billboard 19r1 Tester"
                    }
                ]
            },
            {
                "id": "101",
                "title": "Billboard Tester - Evolved",
                "content": "",
                "updated": "2019-09-13T11:43:29.731Z",
                "links": [
                    {
                        "href": "https://an-appian-instance.host.net/suite/tempo/img/report_generic.png",
                        "rel": "icon",
                        "title": "Icon"
                    },
                    {
                        "href": "https://an-appian-instance.host.net/suite/rest/a/uicontainer/latest/report/GP_U7Q",
                        "rel": "edit",
                        "title": "Billboard Tester - Evolved"
                    }
                ]
            },
            {
                "id": "16",
                "title": "Box Tester",
                "content": "",
                "updated": "2019-09-13T11:38:01.936Z",
                "links": [
                    {
                        "href": "https://an-appian-instance.host.net/suite/tempo/img/report_generic.png",
                        "rel": "icon",
                        "title": "Icon"
                    },
                    {
                        "href": "https://an-appian-instance.host.net/suite/rest/a/uicontainer/latest/report/VozLdA",
                        "rel": "edit",
                        "title": "Box Tester"
                    }
                ]
            },
            {
                "id": "54",
                "title": "Button Layout Tester",
                "content": "Report for testing Button Layout",
                "updated": "2019-09-13T11:38:13.688Z",
                "links": [
                    {
                        "href": "https://an-appian-instance.host.net/suite/tempo/img/report_generic.png",
                        "rel": "icon",
                        "title": "Icon"
                    },
                    {
                        "href": "https://an-appian-instance.host.net/suite/rest/a/uicontainer/latest/report/VowFxQ",
                        "rel": "edit",
                        "title": "Button Layout Tester"
                    }
                ]
            },
            {
                "id": "38",
                "title": "Card Layout Tester",
                "content": "",
                "updated": "2019-09-13T11:38:08.452Z",
                "links": [
                    {
                        "href": "https://an-appian-instance.host.net/suite/tempo/img/report_generic.png",
                        "rel": "icon",
                        "title": "Icon"
                    },
                    {
                        "href": "https://an-appian-instance.host.net/suite/rest/a/uicontainer/latest/report/EgiUAg",
                        "rel": "edit",
                        "title": "Card Layout Tester"
                    }
                ]
            },
            {
                "id": "177",
                "title": "Charts: Bar Chart",
                "content": "Bar chart demo",
                "updated": "2019-09-13T11:43:37.881Z",
                "links": [
                    {
                        "href": "https://an-appian-instance.host.net/suite/tempo/img/report_generic.png",
                        "rel": "icon",
                        "title": "Icon"
                    },
                    {
                        "href": "https://an-appian-instance.host.net/suite/rest/a/uicontainer/latest/report/IiXyoQ",
                        "rel": "edit",
                        "title": "Charts: Bar Chart"
                    }
                ]
            },
            {
                "id": "176",
                "title": "Charts: Column Chart",
                "content": "Runtime equivalent to mockup's component_stacked_column_chart.html for stacked and unstacked",
                "updated": "2019-09-13T11:43:37.828Z",
                "links": [
                    {
                        "href": "https://an-appian-instance.host.net/suite/tempo/img/report_generic.png",
                        "rel": "icon",
                        "title": "Icon"
                    },
                    {
                        "href": "https://an-appian-instance.host.net/suite/rest/a/uicontainer/latest/report/colChartDemo",
                        "rel": "edit",
                        "title": "Charts: Column Chart"
                    }
                ]
            },
            {
                "id": "183",
                "title": "Charts: Designer Configured Colors",
                "content": "",
                "updated": "2019-09-13T11:43:38.269Z",
                "links": [
                    {
                        "href": "https://an-appian-instance.host.net/suite/tempo/img/report_generic.png",
                        "rel": "icon",
                        "title": "Icon"
                    },
                    {
                        "href": "https://an-appian-instance.host.net/suite/rest/a/uicontainer/latest/report/fncuiw",
                        "rel": "edit",
                        "title": "Charts: Designer Configured Colors"
                    }
                ]
            },
            {
                "id": "178",
                "title": "Charts: Drillable Chart",
                "content": "Drillable charts",
                "updated": "2019-09-13T11:43:37.916Z",
                "links": [
                    {
                        "href": "https://an-appian-instance.host.net/suite/tempo/img/report_generic.png",
                        "rel": "icon",
                        "title": "Icon"
                    },
                    {
                        "href": "https://an-appian-instance.host.net/suite/rest/a/uicontainer/latest/report/IBeqLw",
                        "rel": "edit",
                        "title": "Charts: Drillable Chart"
                    }
                ]
            },
            {
                "id": "174",
                "title": "Charts: Line Chart",
                "content": "Runtime equivalent to the mockups repository's component_line_chart.html",
                "updated": "2019-09-13T11:43:37.716Z",
                "links": [
                    {
                        "href": "https://an-appian-instance.host.net/suite/tempo/img/report_generic.png",
                        "rel": "icon",
                        "title": "Icon"
                    },
                    {
                        "href": "https://an-appian-instance.host.net/suite/rest/a/uicontainer/latest/report/lineChart",
                        "rel": "edit",
                        "title": "Charts: Line Chart"
                    }
                ]
            },
            {
                "id": "34",
                "title": "Checkbox By Index Tester",
                "content": "",
                "updated": "2019-09-13T11:38:07.630Z",
                "links": [
                    {
                        "href": "https://an-appian-instance.host.net/suite/tempo/img/report_generic.png",
                        "rel": "icon",
                        "title": "Icon"
                    },
                    {
                        "href": "https://an-appian-instance.host.net/suite/rest/a/uicontainer/latest/report/tRP5OA",
                        "rel": "edit",
                        "title": "Checkbox By Index Tester"
                    }
                ]
            },
            {
                "id": "164",
                "title": "Checkbox Component",
                "content": "Runtime equivalent to the mockups repository's component_checkbox.html",
                "updated": "2019-09-13T11:43:37.177Z",
                "links": [
                    {
                        "href": "https://an-appian-instance.host.net/suite/tempo/img/report_generic.png",
                        "rel": "icon",
                        "title": "Icon"
                    },
                    {
                        "href": "https://an-appian-instance.host.net/suite/rest/a/uicontainer/latest/report/checkboxField",
                        "rel": "edit",
                        "title": "Checkbox Component"
                    }
                ]
            },
            {
                "id": "39",
                "title": "Checkbox Tester",
                "content": "Report for testing Checkbox Component",
                "updated": "2019-09-13T11:38:08.812Z",
                "links": [
                    {
                        "href": "https://an-appian-instance.host.net/suite/tempo/img/report_generic.png",
                        "rel": "icon",
                        "title": "Icon"
                    },
                    {
                        "href": "https://an-appian-instance.host.net/suite/rest/a/uicontainer/latest/report/NwIMjg",
                        "rel": "edit",
                        "title": "Checkbox Tester"
                    }
                ]
            },
            {
                "id": "168",
                "title": "Closed Opportunities",
                "content": "Shows opportunities that have been won",
                "updated": "2019-09-13T11:43:37.341Z",
                "links": [
                    {
                        "href": "https://an-appian-instance.host.net/suite/tempo/img/report_generic.png",
                        "rel": "icon",
                        "title": "Icon"
                    },
                    {
                        "href": "https://an-appian-instance.host.net/suite/rest/a/uicontainer/latest/report/closedOpportunities",
                        "rel": "edit",
                        "title": "Closed Opportunities"
                    }
                ]
            },
            {
                "id": "165",
                "title": "Code 9x Issues",
                "content": "Code 98 and Code 99 incidents by month",
                "updated": "2019-09-13T11:43:37.217Z",
                "links": [
                    {
                        "href": "https://an-appian-instance.host.net/suite/tempo/img/report_generic.png",
                        "rel": "icon",
                        "title": "Icon"
                    },
                    {
                        "href": "https://an-appian-instance.host.net/suite/rest/a/uicontainer/latest/report/code9x",
                        "rel": "edit",
                        "title": "Code 9x Issues"
                    }
                ]
            },
            {
                "id": "158",
                "title": "Collapsible Sections",
                "content": "",
                "updated": "2019-09-13T11:43:36.451Z",
                "links": [
                    {
                        "href": "https://an-appian-instance.host.net/suite/tempo/img/report_generic.png",
                        "rel": "icon",
                        "title": "Icon"
                    },
                    {
                        "href": "https://an-appian-instance.host.net/suite/rest/a/uicontainer/latest/report/57pPNg",
                        "rel": "edit",
                        "title": "Collapsible Sections"
                    }
                ]
            },
            {
                "id": "23",
                "title": "Column Chart Tester",
                "content": "Report for testing Column Chart Component",
                "updated": "2019-09-13T11:38:05.118Z",
                "links": [
                    {
                        "href": "https://an-appian-instance.host.net/suite/tempo/img/report_generic.png",
                        "rel": "icon",
                        "title": "Icon"
                    },
                    {
                        "href": "https://an-appian-instance.host.net/suite/rest/a/uicontainer/latest/report/YTkbhA",
                        "rel": "edit",
                        "title": "Column Chart Tester"
                    }
                ]
            },
            {
                "id": "155",
                "title": "Columns Browser",
                "content": "Illustrates use of Hierarchy Browser Field Columns component",
                "updated": "2019-09-13T11:43:36.228Z",
                "links": [
                    {
                        "href": "https://an-appian-instance.host.net/suite/tempo/img/report_generic.png",
                        "rel": "icon",
                        "title": "Icon"
                    },
                    {
                        "href": "https://an-appian-instance.host.net/suite/rest/a/uicontainer/latest/report/c06P8w",
                        "rel": "edit",
                        "title": "Columns Browser"
                    }
                ]
            },
            {
                "id": "51",
                "title": "Columns Browser Tester",
                "content": "Report for testing Columns Browser",
                "updated": "2019-09-13T11:38:12.864Z",
                "links": [
                    {
                        "href": "https://an-appian-instance.host.net/suite/tempo/img/report_generic.png",
                        "rel": "icon",
                        "title": "Icon"
                    },
                    {
                        "href": "https://an-appian-instance.host.net/suite/rest/a/uicontainer/latest/report/Ag4msA",
                        "rel": "edit",
                        "title": "Columns Browser Tester"
                    }
                ]
            },
            {
                "id": "12",
                "title": "Columns Layout Tester",
                "content": "",
                "updated": "2019-09-13T11:37:59.899Z",
                "links": [
                    {
                        "href": "https://an-appian-instance.host.net/suite/tempo/img/report_generic.png",
                        "rel": "icon",
                        "title": "Icon"
                    },
                    {
                        "href": "https://an-appian-instance.host.net/suite/rest/a/uicontainer/latest/report/3m1e2A",
                        "rel": "edit",
                        "title": "Columns Layout Tester"
                    }
                ]
            },
            {
                "id": "81",
                "title": "Configurable Layout Report",
                "content": "Developed to help test layout rendering of paragraph, text, datetime, integer, floatingPoint, radioButton, and checkBox fields.",
                "updated": "2019-09-13T11:43:27.214Z",
                "links": [
                    {
                        "href": "https://an-appian-instance.host.net/suite/tempo/img/report_generic.png",
                        "rel": "icon",
                        "title": "Icon"
                    },
                    {
                        "href": "https://an-appian-instance.host.net/suite/rest/a/uicontainer/latest/report/N31yhA",
                        "rel": "edit",
                        "title": "Configurable Layout Report"
                    }
                ]
            },
            {
                "id": "78",
                "title": "Course Statistics",
                "content": "",
                "updated": "2019-09-13T11:43:26.602Z",
                "links": [
                    {
                        "href": "https://an-appian-instance.host.net/suite/tempo/img/report_generic.png",
                        "rel": "icon",
                        "title": "Icon"
                    },
                    {
                        "href": "https://an-appian-instance.host.net/suite/rest/a/uicontainer/latest/report/2XxD0w",
                        "rel": "edit",
                        "title": "Course Statistics"
                    }
                ]
            },
            {
                "id": "50",
                "title": "CSE Tester",
                "content": "",
                "updated": "2019-09-13T11:38:12.436Z",
                "links": [
                    {
                        "href": "https://an-appian-instance.host.net/suite/tempo/img/report_generic.png",
                        "rel": "icon",
                        "title": "Icon"
                    },
                    {
                        "href": "https://an-appian-instance.host.net/suite/rest/a/uicontainer/latest/report/nwFN5Q",
                        "rel": "edit",
                        "title": "CSE Tester"
                    }
                ]
            },
            {
                "id": "182",
                "title": "Custom Picker Test",
                "content": "",
                "updated": "2019-09-13T11:43:38.173Z",
                "links": [
                    {
                        "href": "https://an-appian-instance.host.net/suite/tempo/img/report_generic.png",
                        "rel": "icon",
                        "title": "Icon"
                    },
                    {
                        "href": "https://an-appian-instance.host.net/suite/rest/a/uicontainer/latest/report/-XmhlQ",
                        "rel": "edit",
                        "title": "Custom Picker Test"
                    }
                ]
            },
            {
                "id": "57",
                "title": "Custom Picker Tester",
                "content": "Report for testing  Custom Picker Component",
                "updated": "2019-09-13T11:38:14.398Z",
                "links": [
                    {
                        "href": "https://an-appian-instance.host.net/suite/tempo/img/report_generic.png",
                        "rel": "icon",
                        "title": "Icon"
                    },
                    {
                        "href": "https://an-appian-instance.host.net/suite/rest/a/uicontainer/latest/report/md0wFQ",
                        "rel": "edit",
                        "title": "Custom Picker Tester"
                    }
                ]
            },
            {
                "id": "9",
                "title": "Dashboard Layout 17r1 Tester",
                "content": "",
                "updated": "2019-09-13T11:37:58.455Z",
                "links": [
                    {
                        "href": "https://an-appian-instance.host.net/suite/tempo/img/report_generic.png",
                        "rel": "icon",
                        "title": "Icon"
                    },
                    {
                        "href": "https://an-appian-instance.host.net/suite/rest/a/uicontainer/latest/report/9bjGZw",
                        "rel": "edit",
                        "title": "Dashboard Layout 17r1 Tester"
                    }
                ]
            },
            {
                "id": "7",
                "title": "Dashboard Layout Tester",
                "content": "",
                "updated": "2019-09-13T11:37:57.519Z",
                "links": [
                    {
                        "href": "https://an-appian-instance.host.net/suite/tempo/img/report_generic.png",
                        "rel": "icon",
                        "title": "Icon"
                    },
                    {
                        "href": "https://an-appian-instance.host.net/suite/rest/a/uicontainer/latest/report/4-1PiA",
                        "rel": "edit",
                        "title": "Dashboard Layout Tester"
                    }
                ]
            },
            {
                "id": "180",
                "title": "Date Field",
                "content": "",
                "updated": "2019-09-13T11:43:38.014Z",
                "links": [
                    {
                        "href": "https://an-appian-instance.host.net/suite/tempo/img/report_generic.png",
                        "rel": "icon",
                        "title": "Icon"
                    },
                    {
                        "href": "https://an-appian-instance.host.net/suite/rest/a/uicontainer/latest/report/azgDRg",
                        "rel": "edit",
                        "title": "Date Field"
                    }
                ]
            },
            {
                "id": "61",
                "title": "Date Tester",
                "content": "Report for testing Date Component",
                "updated": "2019-09-13T11:38:15.583Z",
                "links": [
                    {
                        "href": "https://an-appian-instance.host.net/suite/tempo/img/report_generic.png",
                        "rel": "icon",
                        "title": "Icon"
                    },
                    {
                        "href": "https://an-appian-instance.host.net/suite/rest/a/uicontainer/latest/report/JtJxgg",
                        "rel": "edit",
                        "title": "Date Tester"
                    }
                ]
            },
            {
                "id": "49",
                "title": "Date Time Tester",
                "content": "Report for testing Date Time Component",
                "updated": "2019-09-13T11:38:12.286Z",
                "links": [
                    {
                        "href": "https://an-appian-instance.host.net/suite/tempo/img/report_generic.png",
                        "rel": "icon",
                        "title": "Icon"
                    },
                    {
                        "href": "https://an-appian-instance.host.net/suite/rest/a/uicontainer/latest/report/FcnmHw",
                        "rel": "edit",
                        "title": "Date Time Tester"
                    }
                ]
            },
            {
                "id": "185",
                "title": "Datetime Field",
                "content": "",
                "updated": "2019-09-13T11:43:38.555Z",
                "links": [
                    {
                        "href": "https://an-appian-instance.host.net/suite/tempo/img/report_generic.png",
                        "rel": "icon",
                        "title": "Icon"
                    },
                    {
                        "href": "https://an-appian-instance.host.net/suite/rest/a/uicontainer/latest/report/vYp0Ow",
                        "rel": "edit",
                        "title": "Datetime Field"
                    }
                ]
            },
            {
                "id": "47",
                "title": "Document & Folder Picker Tester",
                "content": "Report for testing Document & Folder Picker",
                "updated": "2019-09-13T11:38:11.942Z",
                "links": [
                    {
                        "href": "https://an-appian-instance.host.net/suite/tempo/img/report_generic.png",
                        "rel": "icon",
                        "title": "Icon"
                    },
                    {
                        "href": "https://an-appian-instance.host.net/suite/rest/a/uicontainer/latest/report/dBkE-A",
                        "rel": "edit",
                        "title": "Document & Folder Picker Tester"
                    }
                ]
            },
            {
                "id": "15",
                "title": "Document and Folder Browser Tester",
                "content": "",
                "updated": "2019-09-13T11:38:01.601Z",
                "links": [
                    {
                        "href": "https://an-appian-instance.host.net/suite/tempo/img/report_generic.png",
                        "rel": "icon",
                        "title": "Icon"
                    },
                    {
                        "href": "https://an-appian-instance.host.net/suite/rest/a/uicontainer/latest/report/bobnhQ",
                        "rel": "edit",
                        "title": "Document and Folder Browser Tester"
                    }
                ]
            },
            {
                "id": "157",
                "title": "Document Browser",
                "content": "Illustrates use of Document Browser Field Columns component",
                "updated": "2019-09-13T11:43:36.375Z",
                "links": [
                    {
                        "href": "https://an-appian-instance.host.net/suite/tempo/img/report_generic.png",
                        "rel": "icon",
                        "title": "Icon"
                    },
                    {
                        "href": "https://an-appian-instance.host.net/suite/rest/a/uicontainer/latest/report/ckvrBQ",
                        "rel": "edit",
                        "title": "Document Browser"
                    }
                ]
            },
            {
                "id": "30",
                "title": "Document Browser Tester",
                "content": "Report for testing Document Browser",
                "updated": "2019-09-13T11:38:06.906Z",
                "links": [
                    {
                        "href": "https://an-appian-instance.host.net/suite/tempo/img/report_generic.png",
                        "rel": "icon",
                        "title": "Icon"
                    },
                    {
                        "href": "https://an-appian-instance.host.net/suite/rest/a/uicontainer/latest/report/bGnxSQ",
                        "rel": "edit",
                        "title": "Document Browser Tester"
                    }
                ]
            },
            {
                "id": "56",
                "title": "Document Picker Tester",
                "content": "Report for testing Document Picker",
                "updated": "2019-09-13T11:38:14.198Z",
                "links": [
                    {
                        "href": "https://an-appian-instance.host.net/suite/tempo/img/report_generic.png",
                        "rel": "icon",
                        "title": "Icon"
                    },
                    {
                        "href": "https://an-appian-instance.host.net/suite/rest/a/uicontainer/latest/report/Y1hLeg",
                        "rel": "edit",
                        "title": "Document Picker Tester"
                    }
                ]
            },
            {
                "id": "99",
                "title": "Document Viewer Field Tester",
                "content": "Dynamically test all properties and rendering of Document Viewer Field",
                "updated": "2019-09-13T11:43:29.622Z",
                "links": [
                    {
                        "href": "https://an-appian-instance.host.net/suite/tempo/img/report_generic.png",
                        "rel": "icon",
                        "title": "Icon"
                    },
                    {
                        "href": "https://an-appian-instance.host.net/suite/rest/a/uicontainer/latest/report/0GeKCQ",
                        "rel": "edit",
                        "title": "Document Viewer Field Tester"
                    }
                ]
            },
            {
                "id": "2",
                "title": "Dropdown by Index Tester",
                "content": "",
                "updated": "2019-09-13T11:37:51.954Z",
                "links": [
                    {
                        "href": "https://an-appian-instance.host.net/suite/tempo/img/report_generic.png",
                        "rel": "icon",
                        "title": "Icon"
                    },
                    {
                        "href": "https://an-appian-instance.host.net/suite/rest/a/uicontainer/latest/report/QtOIzg",
                        "rel": "edit",
                        "title": "Dropdown by Index Tester"
                    }
                ]
            },
            {
                "id": "166",
                "title": "Dropdown Component",
                "content": "Runtime equivalent to the mockups repository's component_dropdown.html",
                "updated": "2019-09-13T11:43:37.257Z",
                "links": [
                    {
                        "href": "https://an-appian-instance.host.net/suite/tempo/img/report_generic.png",
                        "rel": "icon",
                        "title": "Icon"
                    },
                    {
                        "href": "https://an-appian-instance.host.net/suite/rest/a/uicontainer/latest/report/dropdownField",
                        "rel": "edit",
                        "title": "Dropdown Component"
                    }
                ]
            },
            {
                "id": "28",
                "title": "Dropdown Tester",
                "content": "Report for testing Dropdown Component",
                "updated": "2019-09-13T11:38:06.339Z",
                "links": [
                    {
                        "href": "https://an-appian-instance.host.net/suite/tempo/img/report_generic.png",
                        "rel": "icon",
                        "title": "Icon"
                    },
                    {
                        "href": "https://an-appian-instance.host.net/suite/rest/a/uicontainer/latest/report/Io72cA",
                        "rel": "edit",
                        "title": "Dropdown Tester"
                    }
                ]
            },
            {
                "id": "190",
                "title": "Dynamic Sail Components",
                "content": "",
                "updated": "2019-09-13T11:43:39.030Z",
                "links": [
                    {
                        "href": "https://an-appian-instance.host.net/suite/tempo/img/report_generic.png",
                        "rel": "icon",
                        "title": "Icon"
                    },
                    {
                        "href": "https://an-appian-instance.host.net/suite/rest/a/uicontainer/latest/report/POXLXA",
                        "rel": "edit",
                        "title": "Dynamic Sail Components"
                    }
                ]
            },
            {
                "id": "147",
                "title": "Embedded Test Pages",
                "content": "Test pages and instructions for working with embedded interfaces",
                "updated": "2019-09-13T11:43:34.633Z",
                "links": [
                    {
                        "href": "https://an-appian-instance.host.net/suite/tempo/img/report_generic.png",
                        "rel": "icon",
                        "title": "Icon"
                    },
                    {
                        "href": "https://an-appian-instance.host.net/suite/rest/a/uicontainer/latest/report/7X24Iw",
                        "rel": "edit",
                        "title": "Embedded Test Pages"
                    }
                ]
            },
            {
                "id": "149",
                "title": "Embedded v2 Report React",
                "content": "A report for use with the Embedded v2 test page that uses only reactified components.",
                "updated": "2019-09-13T11:43:34.778Z",
                "links": [
                    {
                        "href": "https://an-appian-instance.host.net/suite/tempo/img/report_generic.png",
                        "rel": "icon",
                        "title": "Icon"
                    },
                    {
                        "href": "https://an-appian-instance.host.net/suite/rest/a/uicontainer/latest/report/tNecKA",
                        "rel": "edit",
                        "title": "Embedded v2 Report React"
                    }
                ]
            },
            {
                "id": "146",
                "title": "EmbeddedSAILAppReport",
                "content": "",
                "updated": "2019-09-13T11:43:34.560Z",
                "links": [
                    {
                        "href": "https://an-appian-instance.host.net/suite/tempo/img/report_generic.png",
                        "rel": "icon",
                        "title": "Icon"
                    },
                    {
                        "href": "https://an-appian-instance.host.net/suite/rest/a/uicontainer/latest/report/0WkJmw",
                        "rel": "edit",
                        "title": "EmbeddedSAILAppReport"
                    }
                ]
            },
            {
                "id": "8",
                "title": "Encrypted Text Tester",
                "content": "Report for testing  Encrypted Field Component",
                "updated": "2019-09-13T11:37:58.312Z",
                "links": [
                    {
                        "href": "https://an-appian-instance.host.net/suite/tempo/img/report_generic.png",
                        "rel": "icon",
                        "title": "Icon"
                    },
                    {
                        "href": "https://an-appian-instance.host.net/suite/rest/a/uicontainer/latest/report/hLUv4Q",
                        "rel": "edit",
                        "title": "Encrypted Text Tester"
                    }
                ]
            },
            {
                "id": "52",
                "title": "File Upload Tester",
                "content": "Report for testing File Upload Component",
                "updated": "2019-09-13T11:38:13.273Z",
                "links": [
                    {
                        "href": "https://an-appian-instance.host.net/suite/tempo/img/report_generic.png",
                        "rel": "icon",
                        "title": "Icon"
                    },
                    {
                        "href": "https://an-appian-instance.host.net/suite/rest/a/uicontainer/latest/report/KNEd4w",
                        "rel": "edit",
                        "title": "File Upload Tester"
                    }
                ]
            },
            {
                "id": "44",
                "title": "Floating Point Tester",
                "content": "Report for testing Floating Point Field Component or Decimal",
                "updated": "2019-09-13T11:38:11.083Z",
                "links": [
                    {
                        "href": "https://an-appian-instance.host.net/suite/tempo/img/report_generic.png",
                        "rel": "icon",
                        "title": "Icon"
                    },
                    {
                        "href": "https://an-appian-instance.host.net/suite/rest/a/uicontainer/latest/report/xs4tmA",
                        "rel": "edit",
                        "title": "Floating Point Tester"
                    }
                ]
            },
            {
                "id": "35",
                "title": "Folder Browser Tester",
                "content": "",
                "updated": "2019-09-13T11:38:07.925Z",
                "links": [
                    {
                        "href": "https://an-appian-instance.host.net/suite/tempo/img/report_generic.png",
                        "rel": "icon",
                        "title": "Icon"
                    },
                    {
                        "href": "https://an-appian-instance.host.net/suite/rest/a/uicontainer/latest/report/LvCIKA",
                        "rel": "edit",
                        "title": "Folder Browser Tester"
                    }
                ]
            },
            {
                "id": "62",
                "title": "Folder Picker Tester",
                "content": "Report for testing Folder Picker",
                "updated": "2019-09-13T11:38:16.061Z",
                "links": [
                    {
                        "href": "https://an-appian-instance.host.net/suite/tempo/img/report_generic.png",
                        "rel": "icon",
                        "title": "Icon"
                    },
                    {
                        "href": "https://an-appian-instance.host.net/suite/rest/a/uicontainer/latest/report/jIAB8g",
                        "rel": "edit",
                        "title": "Folder Picker Tester"
                    }
                ]
            },
            {
                "id": "45",
                "title": "Form Layout Tester",
                "content": "Report for testing Form Layout Component",
                "updated": "2019-09-13T11:38:11.320Z",
                "links": [
                    {
                        "href": "https://an-appian-instance.host.net/suite/tempo/img/report_generic.png",
                        "rel": "icon",
                        "title": "Icon"
                    },
                    {
                        "href": "https://an-appian-instance.host.net/suite/rest/a/uicontainer/latest/report/XIkI5w",
                        "rel": "edit",
                        "title": "Form Layout Tester"
                    }
                ]
            },
            {
                "id": "100",
                "title": "Gauge Field Tester",
                "content": "Report for testing the Gauge Field",
                "updated": "2019-09-13T11:43:29.694Z",
                "links": [
                    {
                        "href": "https://an-appian-instance.host.net/suite/tempo/img/report_generic.png",
                        "rel": "icon",
                        "title": "Icon"
                    },
                    {
                        "href": "https://an-appian-instance.host.net/suite/rest/a/uicontainer/latest/report/4tR9mQ",
                        "rel": "edit",
                        "title": "Gauge Field Tester"
                    }
                ]
            },
            {
                "id": "1",
                "title": "GCT_TEST_REPORT",
                "content": "only used for testing",
                "updated": "2019-09-13T11:37:32.691Z",
                "links": [
                    {
                        "href": "https://an-appian-instance.host.net/suite/tempo/img/report_generic.png",
                        "rel": "icon",
                        "title": "Icon"
                    },
                    {
                        "href": "https://an-appian-instance.host.net/suite/rest/a/uicontainer/latest/report/2IL3Zw",
                        "rel": "edit",
                        "title": "GCT_TEST_REPORT"
                    }
                ]
            },
            {
                "id": "79",
                "title": "Grid Component Tester",
                "content": "Test the grid of all grids.",
                "updated": "2019-09-13T11:43:26.891Z",
                "links": [
                    {
                        "href": "https://an-appian-instance.host.net/suite/tempo/img/report_generic.png",
                        "rel": "icon",
                        "title": "Icon"
                    },
                    {
                        "href": "https://an-appian-instance.host.net/suite/rest/a/uicontainer/latest/report/NjBcvg",
                        "rel": "edit",
                        "title": "Grid Component Tester"
                    }
                ]
            },
            {
                "id": "442",
                "title": "Grid Component with Links",
                "content": "A use case of the new GridField with links. It uses ProcessTasksLinks and SafeLinks",
                "updated": "2019-09-13T11:44:05.302Z",
                "links": [
                    {
                        "href": "https://an-appian-instance.host.net/suite/tempo/img/report_generic.png",
                        "rel": "icon",
                        "title": "Icon"
                    },
                    {
                        "href": "https://an-appian-instance.host.net/suite/rest/a/uicontainer/latest/report/gridfield",
                        "rel": "edit",
                        "title": "Grid Component with Links"
                    }
                ]
            },
            {
                "id": "42",
                "title": "Grid Layout Tester",
                "content": "Report for testing Grid Layout",
                "updated": "2019-09-13T11:38:09.725Z",
                "links": [
                    {
                        "href": "https://an-appian-instance.host.net/suite/tempo/img/report_generic.png",
                        "rel": "icon",
                        "title": "Icon"
                    },
                    {
                        "href": "https://an-appian-instance.host.net/suite/rest/a/uicontainer/latest/report/KKWSSw",
                        "rel": "edit",
                        "title": "Grid Layout Tester"
                    }
                ]
            },
            {
                "id": "156",
                "title": "Group Browser",
                "content": "Illustrates use of Group Browser component",
                "updated": "2019-09-13T11:43:36.292Z",
                "links": [
                    {
                        "href": "https://an-appian-instance.host.net/suite/tempo/img/report_generic.png",
                        "rel": "icon",
                        "title": "Icon"
                    },
                    {
                        "href": "https://an-appian-instance.host.net/suite/rest/a/uicontainer/latest/report/EQbPhA",
                        "rel": "edit",
                        "title": "Group Browser"
                    }
                ]
            },
            {
                "id": "53",
                "title": "Group Browser Tester",
                "content": "Report for testing Group Browser",
                "updated": "2019-09-13T11:38:13.433Z",
                "links": [
                    {
                        "href": "https://an-appian-instance.host.net/suite/tempo/img/report_generic.png",
                        "rel": "icon",
                        "title": "Icon"
                    },
                    {
                        "href": "https://an-appian-instance.host.net/suite/rest/a/uicontainer/latest/report/v5608Q",
                        "rel": "edit",
                        "title": "Group Browser Tester"
                    }
                ]
            },
            {
                "id": "22",
                "title": "Group Picker Tester",
                "content": "Report for testing Group Picker",
                "updated": "2019-09-13T11:38:04.651Z",
                "links": [
                    {
                        "href": "https://an-appian-instance.host.net/suite/tempo/img/report_generic.png",
                        "rel": "icon",
                        "title": "Icon"
                    },
                    {
                        "href": "https://an-appian-instance.host.net/suite/rest/a/uicontainer/latest/report/oZ8KEA",
                        "rel": "edit",
                        "title": "Group Picker Tester"
                    }
                ]
            },
            {
                "id": "10",
                "title": "Hierarchy Tree Tester",
                "content": "Report for testing Hierarchy Tree",
                "updated": "2019-09-13T11:37:58.766Z",
                "links": [
                    {
                        "href": "https://an-appian-instance.host.net/suite/tempo/img/report_generic.png",
                        "rel": "icon",
                        "title": "Icon"
                    },
                    {
                        "href": "https://an-appian-instance.host.net/suite/rest/a/uicontainer/latest/report/DkGxFA",
                        "rel": "edit",
                        "title": "Hierarchy Tree Tester"
                    }
                ]
            },
            {
                "id": "167",
                "title": "Image Component",
                "content": "Various uses of the ImageField to match the mockups",
                "updated": "2019-09-13T11:43:37.303Z",
                "links": [
                    {
                        "href": "https://an-appian-instance.host.net/suite/tempo/img/report_generic.png",
                        "rel": "icon",
                        "title": "Icon"
                    },
                    {
                        "href": "https://an-appian-instance.host.net/suite/rest/a/uicontainer/latest/report/imageField",
                        "rel": "edit",
                        "title": "Image Component"
                    }
                ]
            },
            {
                "id": "46",
                "title": "Image Field Tester",
                "content": "Report for testing Image Field Component",
                "updated": "2019-09-13T11:38:11.724Z",
                "links": [
                    {
                        "href": "https://an-appian-instance.host.net/suite/tempo/img/report_generic.png",
                        "rel": "icon",
                        "title": "Icon"
                    },
                    {
                        "href": "https://an-appian-instance.host.net/suite/rest/a/uicontainer/latest/report/584BmQ",
                        "rel": "edit",
                        "title": "Image Field Tester"
                    }
                ]
            },
            {
                "id": "181",
                "title": "Image Gallery Component",
                "content": "Report currently uses type constructors rather than system rules and only has external images.",
                "updated": "2019-09-13T11:43:38.079Z",
                "links": [
                    {
                        "href": "https://an-appian-instance.host.net/suite/tempo/img/report_generic.png",
                        "rel": "icon",
                        "title": "Icon"
                    },
                    {
                        "href": "https://an-appian-instance.host.net/suite/rest/a/uicontainer/latest/report/3mqXXA",
                        "rel": "edit",
                        "title": "Image Gallery Component"
                    }
                ]
            },
            {
                "id": "447",
                "title": "Impact Analysis Demo",
                "content": "Runtime equivalent to the mockups repository's legacy_dependency_analysis.html",
                "updated": "2019-09-13T11:44:05.531Z",
                "links": [
                    {
                        "href": "https://an-appian-instance.host.net/suite/tempo/img/report_generic.png",
                        "rel": "icon",
                        "title": "Icon"
                    },
                    {
                        "href": "https://an-appian-instance.host.net/suite/rest/a/uicontainer/latest/report/ux25jQ",
                        "rel": "edit",
                        "title": "Impact Analysis Demo"
                    }
                ]
            },
            {
                "id": "186",
                "title": "Impact Analysis JSON Demo",
                "content": "",
                "updated": "2019-09-13T11:43:38.648Z",
                "links": [
                    {
                        "href": "https://an-appian-instance.host.net/suite/tempo/img/report_generic.png",
                        "rel": "icon",
                        "title": "Icon"
                    },
                    {
                        "href": "https://an-appian-instance.host.net/suite/rest/a/uicontainer/latest/report/ep9mXA",
                        "rel": "edit",
                        "title": "Impact Analysis JSON Demo"
                    }
                ]
            },
            {
                "id": "25",
                "title": "Integer Field Tester",
                "content": "Report for testing Integer Field Component",
                "updated": "2019-09-13T11:38:05.502Z",
                "links": [
                    {
                        "href": "https://an-appian-instance.host.net/suite/tempo/img/report_generic.png",
                        "rel": "icon",
                        "title": "Icon"
                    },
                    {
                        "href": "https://an-appian-instance.host.net/suite/rest/a/uicontainer/latest/report/G3ltxg",
                        "rel": "edit",
                        "title": "Integer Field Tester"
                    }
                ]
            },
            {
                "id": "172",
                "title": "Interactivity Tests",
                "content": "Interface for testing interactive choice components.",
                "updated": "2019-09-13T11:43:37.598Z",
                "links": [
                    {
                        "href": "https://an-appian-instance.host.net/suite/tempo/img/report_generic.png",
                        "rel": "icon",
                        "title": "Icon"
                    },
                    {
                        "href": "https://an-appian-instance.host.net/suite/rest/a/uicontainer/latest/report/interactivity",
                        "rel": "edit",
                        "title": "Interactivity Tests"
                    }
                ]
            },
            {
                "id": "4",
                "title": "Invalid Report",
                "content": "",
                "updated": "2019-09-13T11:37:53.441Z",
                "links": [
                    {
                        "href": "https://an-appian-instance.host.net/suite/tempo/img/report_generic.png",
                        "rel": "icon",
                        "title": "Icon"
                    },
                    {
                        "href": "https://an-appian-instance.host.net/suite/rest/a/uicontainer/latest/report/ITdrAA",
                        "rel": "edit",
                        "title": "Invalid Report"
                    }
                ]
            },
            {
                "id": "169",
                "title": "Kudos vs. Followers",
                "content": "Employees with the most kudos showing number of followers for each",
                "updated": "2019-09-13T11:43:37.381Z",
                "links": [
                    {
                        "href": "https://an-appian-instance.host.net/suite/tempo/img/report_generic.png",
                        "rel": "icon",
                        "title": "Icon"
                    },
                    {
                        "href": "https://an-appian-instance.host.net/suite/rest/a/uicontainer/latest/report/kudosFollowers",
                        "rel": "edit",
                        "title": "Kudos vs. Followers"
                    }
                ]
            },
            {
                "id": "188",
                "title": "Label Position",
                "content": "",
                "updated": "2019-09-13T11:43:38.759Z",
                "links": [
                    {
                        "href": "https://an-appian-instance.host.net/suite/tempo/img/report_generic.png",
                        "rel": "icon",
                        "title": "Icon"
                    },
                    {
                        "href": "https://an-appian-instance.host.net/suite/rest/a/uicontainer/latest/report/vUVsyQ",
                        "rel": "edit",
                        "title": "Label Position"
                    }
                ]
            },
            {
                "id": "18",
                "title": "Line Chart Tester",
                "content": "Report for testing Line Chart Component",
                "updated": "2019-09-13T11:38:03.854Z",
                "links": [
                    {
                        "href": "https://an-appian-instance.host.net/suite/tempo/img/report_generic.png",
                        "rel": "icon",
                        "title": "Icon"
                    },
                    {
                        "href": "https://an-appian-instance.host.net/suite/rest/a/uicontainer/latest/report/Wb8G0g",
                        "rel": "edit",
                        "title": "Line Chart Tester"
                    }
                ]
            },
            {
                "id": "159",
                "title": "Link Component",
                "content": "Various uses of the LinkField to match the mockups",
                "updated": "2019-09-13T11:43:36.514Z",
                "links": [
                    {
                        "href": "https://an-appian-instance.host.net/suite/tempo/img/report_generic.png",
                        "rel": "icon",
                        "title": "Icon"
                    },
                    {
                        "href": "https://an-appian-instance.host.net/suite/rest/a/uicontainer/latest/report/linkField",
                        "rel": "edit",
                        "title": "Link Component"
                    }
                ]
            },
            {
                "id": "449",
                "title": "Link Containers",
                "content": "",
                "updated": "2019-09-13T11:44:05.656Z",
                "links": [
                    {
                        "href": "https://an-appian-instance.host.net/suite/tempo/img/report_generic.png",
                        "rel": "icon",
                        "title": "Icon"
                    },
                    {
                        "href": "https://an-appian-instance.host.net/suite/rest/a/uicontainer/latest/report/zOQJ3w",
                        "rel": "edit",
                        "title": "Link Containers"
                    }
                ]
            },
            {
                "id": "58",
                "title": "Link Field Tester",
                "content": "Report for testing Link Field Component",
                "updated": "2019-09-13T11:38:14.516Z",
                "links": [
                    {
                        "href": "https://an-appian-instance.host.net/suite/tempo/img/report_generic.png",
                        "rel": "icon",
                        "title": "Icon"
                    },
                    {
                        "href": "https://an-appian-instance.host.net/suite/rest/a/uicontainer/latest/report/xX8JhA",
                        "rel": "edit",
                        "title": "Link Field Tester"
                    }
                ]
            },
            {
                "id": "40",
                "title": "Links In Containers Tester",
                "content": "Report for testing Links in Containers",
                "updated": "2019-09-13T11:38:08.920Z",
                "links": [
                    {
                        "href": "https://an-appian-instance.host.net/suite/tempo/img/report_generic.png",
                        "rel": "icon",
                        "title": "Icon"
                    },
                    {
                        "href": "https://an-appian-instance.host.net/suite/rest/a/uicontainer/latest/report/x-CrcQ",
                        "rel": "edit",
                        "title": "Links In Containers Tester"
                    }
                ]
            },
            {
                "id": "184",
                "title": "Local State Preservation",
                "content": "",
                "updated": "2019-09-13T11:43:38.486Z",
                "links": [
                    {
                        "href": "https://an-appian-instance.host.net/suite/tempo/img/report_generic.png",
                        "rel": "icon",
                        "title": "Icon"
                    },
                    {
                        "href": "https://an-appian-instance.host.net/suite/rest/a/uicontainer/latest/report/j22d-w",
                        "rel": "edit",
                        "title": "Local State Preservation"
                    }
                ]
            },
            {
                "id": "173",
                "title": "Masked Text Component",
                "content": "Runtime equivalent to the mockup within the Masked Text Component spec",
                "updated": "2019-09-13T11:43:37.642Z",
                "links": [
                    {
                        "href": "https://an-appian-instance.host.net/suite/tempo/img/report_generic.png",
                        "rel": "icon",
                        "title": "Icon"
                    },
                    {
                        "href": "https://an-appian-instance.host.net/suite/rest/a/uicontainer/latest/report/maskedTextComponent",
                        "rel": "edit",
                        "title": "Masked Text Component"
                    }
                ]
            },
            {
                "id": "175",
                "title": "Milestone Component",
                "content": "Runtime equivalent to the mockups repository's component_milestone.html",
                "updated": "2019-09-13T11:43:37.771Z",
                "links": [
                    {
                        "href": "https://an-appian-instance.host.net/suite/tempo/img/report_generic.png",
                        "rel": "icon",
                        "title": "Icon"
                    },
                    {
                        "href": "https://an-appian-instance.host.net/suite/rest/a/uicontainer/latest/report/milestoneField",
                        "rel": "edit",
                        "title": "Milestone Component"
                    }
                ]
            }
        ],
        "attributes": {
            "xml:lang": "en_US"
        }
    }
}